<?xml version="1.0" encoding="UTF-8" standalone="no"?>
<!DOCTYPE svg PUBLIC "-//W3C//DTD SVG 1.1//EN" "http://www.w3.org/Graphics/SVG/1.1/DTD/svg11.dtd">
<svg width="100%" height="100%" viewBox="0 0 300 101" version="1.1" xmlns="http://www.w3.org/2000/svg" xmlns:xlink="http://www.w3.org/1999/xlink" xml:space="preserve" xmlns:serif="http://www.serif.com/" style="fill-rule:evenodd;clip-rule:evenodd;">
    <g transform="matrix(1,0.000894481,-0.000894481,1,0,0)">
        <path d="M116.323,27.272L116.323,26.466C118.189,26.432 119.698,24.874 119.671,23.008C119.671,20.748 117.885,19.968 116.323,19.745L116.323,16.114C116.831,16.216 117.32,16.395 117.774,16.644C117.919,16.727 118.082,16.775 118.248,16.784L118.252,16.784C118.663,16.784 119.002,16.445 119.002,16.034L119.002,16.03C118.982,15.73 118.815,15.459 118.556,15.305C117.878,14.896 117.114,14.647 116.325,14.581L116.325,13.772C116.31,13.431 116.024,13.158 115.684,13.158C115.342,13.158 115.056,13.431 115.042,13.772L115.042,14.554C113.246,14.566 111.777,16.046 111.777,17.842C111.777,17.87 111.777,17.9 111.778,17.928C111.778,19.184 112.363,20.718 115.042,21.139L115.042,24.96C114.235,24.853 113.468,24.545 112.81,24.068C112.655,23.958 112.471,23.9 112.281,23.9C111.847,23.903 111.493,24.26 111.493,24.694C111.493,24.978 111.645,25.239 111.89,25.381C112.825,26.023 113.913,26.407 115.043,26.493L115.043,27.285C115.043,27.631 115.328,27.916 115.674,27.916L115.685,27.916C116.036,27.911 116.321,27.623 116.323,27.272ZM116.323,21.33C117.885,21.665 118.109,22.389 118.109,23.059C118.094,24.048 117.31,24.868 116.323,24.928L116.323,21.33ZM115.069,19.551C114.149,19.356 113.367,18.933 113.367,17.849L113.367,17.805C113.367,16.864 114.129,16.085 115.069,16.064L115.069,19.551ZM129.964,38.318C129.901,38.311 129.839,38.308 129.776,38.308C128.833,38.308 128.058,39.084 128.058,40.027C128.058,40.09 128.06,40.152 128.067,40.215C128.064,40.261 128.062,40.306 128.062,40.352C128.062,41.395 128.921,42.254 129.964,42.254C131.007,42.254 131.866,41.395 131.866,40.352C131.866,40.306 131.864,40.261 131.861,40.215C131.868,40.152 131.871,40.09 131.871,40.027C131.871,39.084 131.095,38.308 130.152,38.308C130.089,38.308 130.027,38.311 129.964,38.318Z" style="fill:rgb(1,157,244);fill-rule:nonzero;stroke:rgb(1,157,244);stroke-width:0.49px;"/>
    </g>
    <g transform="matrix(1,0.000894481,-0.000894481,1,0,0)">
        <path d="M143.186,4.455C141.77,3.211 139.905,2.596 138.026,2.754L121.903,2.754C120.022,2.601 118.156,3.227 116.746,4.483C115.517,5.885 114.912,7.73 115.069,9.588L115.069,10.206C112.449,10.145 109.899,11.071 107.928,12.799C106.087,14.581 105.139,17.259 105.139,20.746C105.139,24.233 106.087,26.91 107.928,28.696C109.899,30.423 112.449,31.349 115.069,31.289L115.069,40.577C114.912,42.463 115.526,44.335 116.77,45.763C118.187,46.987 120.038,47.59 121.903,47.436L138.026,47.436C139.893,47.609 141.751,47.003 143.159,45.763C144.412,44.342 145.028,42.465 144.861,40.577L144.861,9.588C145.015,7.723 144.411,5.872 143.186,4.455ZM106.422,20.746C106.422,17.622 107.23,15.251 108.821,13.689C110.738,12.075 113.212,11.274 115.711,11.458C118.209,11.279 120.682,12.08 122.601,13.689C124.191,15.223 125,17.595 125,20.746C125,23.87 124.191,26.241 122.601,27.803C120.683,29.417 118.21,30.218 115.711,30.034C113.213,30.213 110.74,29.412 108.821,27.803C107.23,26.268 106.422,23.897 106.422,20.746ZM143.576,40.606C143.576,44.568 141.959,46.185 138.02,46.185L121.903,46.185C117.942,46.185 116.325,44.568 116.325,40.606L116.325,31.317C118.936,31.378 121.477,30.451 123.437,28.724C125.306,26.938 126.226,24.261 126.226,20.774C126.226,17.287 125.278,14.608 123.437,12.824C121.475,11.101 118.935,10.175 116.325,10.231L116.325,9.613C116.184,8.092 116.655,6.576 117.635,5.404C118.805,4.397 120.339,3.913 121.875,4.065L137.998,4.065C139.537,3.915 141.075,4.387 142.265,5.377C143.243,6.562 143.713,8.087 143.576,9.617L143.576,40.606Z" style="fill:rgb(1,157,244);fill-rule:nonzero;stroke:rgb(1,157,244);stroke-width:0.49px;"/>
    </g>
    <g transform="matrix(1.23479,0,0,1.14252,105.467,11.3961)">
        <circle cx="8.5" cy="8.5" r="8.5" style="fill:rgb(1,157,244);fill-opacity:0.2;"/>
    </g>
    <g transform="matrix(1,0.000894481,-0.000894481,1,0,0)">
        <path d="M14.243,29.483C10.627,29.483 7.811,28.544 5.905,26.695C3.918,24.761 2.896,21.89 2.896,18.108C2.896,14.326 3.918,11.455 5.905,9.549C7.837,7.7 10.627,6.761 14.243,6.761C17.859,6.761 20.675,7.7 22.608,9.549C24.595,11.482 25.617,14.353 25.617,18.108C25.617,21.863 24.595,24.761 22.608,26.667C20.675,28.544 17.859,29.483 14.243,29.483ZM14.243,8.031C10.957,8.031 8.446,8.859 6.761,10.461C5.021,12.145 4.138,14.713 4.138,18.109C4.138,21.506 5.022,24.1 6.761,25.757C8.445,27.386 10.957,28.187 14.243,28.187C17.529,28.187 20.04,27.359 21.725,25.757C23.465,24.073 24.348,21.506 24.348,18.109C24.348,14.713 23.464,12.118 21.725,10.461C20.04,8.834 17.526,8.031 14.243,8.031Z" style="fill:rgb(1,157,244);fill-rule:nonzero;stroke:rgb(1,157,244);stroke-width:0.49px;"/>
    </g>
    <g transform="matrix(1,0.000894481,-0.000894481,1,0,0)">
        <path d="M13.911,24.456C12.547,24.446 11.218,24.021 10.101,23.237C9.861,23.077 9.716,22.808 9.715,22.519C9.727,22.089 10.086,21.744 10.516,21.746C10.702,21.75 10.885,21.807 11.04,21.912C11.922,22.535 12.97,22.881 14.049,22.905C15.756,22.905 16.837,22.078 16.837,20.752C16.837,19.925 16.534,19.013 14.242,18.709L13.689,18.626C10.652,18.24 10.017,16.553 10.017,15.203C10.017,12.993 11.591,11.587 14.02,11.587C15.143,11.567 16.25,11.854 17.223,12.414C17.495,12.555 17.673,12.828 17.692,13.132L17.692,13.135C17.692,13.542 17.357,13.877 16.95,13.877L16.947,13.877C16.783,13.869 16.622,13.821 16.478,13.74C15.718,13.313 14.864,13.085 13.993,13.078C12.502,13.078 11.591,13.851 11.591,15.093C11.591,15.866 11.895,16.8 14.131,17.08L14.683,17.163C16.39,17.384 18.41,18.157 18.41,20.641C18.383,23.021 16.672,24.456 13.911,24.456ZM10.405,22.799C11.438,23.509 12.658,23.894 13.911,23.904C16.368,23.904 17.832,22.716 17.832,20.734C17.832,19.05 16.783,18.084 14.603,17.808L14.05,17.725C11.978,17.45 11.013,16.649 11.013,15.158C11.017,13.719 12.201,12.537 13.639,12.537C13.759,12.537 13.877,12.546 13.995,12.562C14.955,12.572 15.897,12.828 16.729,13.307C16.795,13.351 16.87,13.379 16.95,13.39L16.954,13.39C17.058,13.39 17.143,13.304 17.143,13.201L17.143,13.196C17.143,13.085 17.032,13.002 16.95,12.952C16.058,12.447 15.048,12.19 14.024,12.207C11.897,12.207 10.572,13.367 10.572,15.272C10.572,16.901 11.649,17.868 13.742,18.143L14.294,18.226C16.42,18.493 17.396,19.322 17.396,20.812C17.396,22.469 16.071,23.517 14.027,23.517C12.836,23.498 11.679,23.113 10.715,22.413C10.652,22.362 10.574,22.332 10.494,22.33C10.382,22.325 10.283,22.412 10.273,22.524C10.266,22.634 10.318,22.74 10.411,22.799L10.405,22.799Z" style="fill:rgb(1,157,244);fill-rule:nonzero;stroke:rgb(1,157,244);stroke-width:0.49px;"/>
    </g>
    <g transform="matrix(1,0.000894481,-0.000894481,1,0,0)">
        <path d="M14.16,26.196L14.149,26.196C13.807,26.196 13.525,25.914 13.525,25.572L13.525,11.012C13.525,10.664 13.811,10.377 14.16,10.377C14.509,10.377 14.795,10.664 14.795,11.012L14.795,25.589C14.779,25.927 14.498,26.195 14.16,26.196Z" style="fill:rgb(1,157,244);fill-rule:nonzero;stroke:rgb(1,157,244);stroke-width:0.49px;"/>
    </g>
    <g>
        <g transform="matrix(1,0.000894481,-0.000894481,1,0,0)">
            <path d="M42.845,47.042L15.626,47.042C15.556,47.049 15.487,47.052 15.418,47.052C14.388,47.052 13.542,46.206 13.542,45.176C13.542,45.108 13.546,45.038 13.553,44.969L13.553,29.095C13.553,28.746 13.839,28.46 14.188,28.46C14.537,28.46 14.823,28.746 14.823,29.095L14.823,44.969C14.823,45.604 14.989,45.797 15.624,45.797L45.026,45.797C45.606,45.797 45.771,45.631 45.771,45.052L45.771,16.01L39.034,16.01C35.748,15.982 33.791,13.663 33.791,9.77L33.791,4.028L15.651,4.028C15.042,4.028 14.85,4.221 14.85,4.829L14.85,7.429C14.85,7.772 14.568,8.053 14.226,8.053L14.205,8.053C13.863,8.053 13.581,7.772 13.581,7.429L13.581,4.829C13.575,4.766 13.571,4.704 13.571,4.642C13.571,3.617 14.415,2.773 15.44,2.773C15.511,2.773 15.582,2.778 15.651,2.785L34.437,2.785C34.78,2.785 35.062,3.067 35.062,3.409L35.062,9.798C35.062,11.647 35.586,14.767 39.064,14.767L46.445,14.767C46.788,14.767 47.069,15.049 47.069,15.392L47.069,45.081C47.075,45.141 47.078,45.201 47.078,45.26C47.078,46.272 46.245,47.105 45.233,47.105C45.174,47.105 45.114,47.102 45.054,47.096C44.308,47.042 43.563,47.042 42.845,47.042ZM39.643,38.427L21.035,38.427C20.686,38.427 20.4,38.14 20.4,37.792C20.4,37.443 20.686,37.156 21.035,37.156L39.643,37.156C39.992,37.156 40.279,37.443 40.279,37.792C40.279,38.14 39.992,38.427 39.643,38.427ZM39.643,31.056L23.629,31.056C23.281,31.056 22.994,30.769 22.994,30.42C22.994,30.072 23.281,29.785 23.629,29.785L39.643,29.785C39.992,29.785 40.279,30.072 40.279,30.42C40.279,30.769 39.992,31.056 39.643,31.056ZM39.643,23.712L27.66,23.712C27.311,23.712 27.025,23.426 27.025,23.077C27.025,22.729 27.311,22.442 27.66,22.442L39.643,22.442C39.992,22.442 40.279,22.729 40.279,23.077C40.279,23.426 39.992,23.712 39.643,23.712Z" style="fill:rgb(1,157,244);fill-rule:nonzero;stroke:rgb(1,157,244);stroke-width:0.49px;"/>
        </g>
        <g transform="matrix(1,0.000894481,-0.000894481,1,0,0)">
            <path d="M46.407,15.982L39.033,15.982C35.747,15.954 33.79,13.635 33.79,9.742L33.79,3.366C33.793,3.113 33.945,2.885 34.177,2.785C34.411,2.676 34.692,2.732 34.867,2.923L46.849,14.905C47.028,15.087 47.083,15.359 46.986,15.595C46.88,15.822 46.657,15.971 46.407,15.982ZM35.032,4.887L35.032,9.743C35.032,11.593 35.557,14.713 39.035,14.713L44.885,14.713L35.032,4.887Z" style="fill:rgb(1,157,244);fill-rule:nonzero;stroke:rgb(1,157,244);stroke-width:0.49px;"/>
        </g>
    </g>
    <g transform="matrix(1.21918,0,0,1.21918,2.89606,6.63179)">
        <ellipse cx="9.5" cy="9" rx="9.5" ry="9" style="fill:rgb(1,157,244);fill-opacity:0.2;"/>
    </g>
    <g transform="matrix(1,0.000894481,-0.000894481,1,0,0)">
        <path d="M64.304,29.677C60.687,29.677 57.871,28.738 55.966,26.889C53.978,24.955 52.957,22.084 52.957,18.302C52.957,14.52 53.978,11.649 55.966,9.743C57.898,7.894 60.687,6.955 64.304,6.955C67.92,6.955 70.736,7.894 72.668,9.743C74.656,11.676 75.677,14.547 75.677,18.302C75.677,22.057 74.656,24.955 72.668,26.861C70.736,28.738 67.92,29.677 64.304,29.677ZM64.304,8.226C61.018,8.226 58.506,9.053 56.821,10.655C55.082,12.339 54.199,14.907 54.199,18.303C54.199,21.7 55.083,24.294 56.821,25.951C58.505,27.58 61.018,28.381 64.304,28.381C67.589,28.381 70.101,27.553 71.786,25.951C73.525,24.268 74.408,21.7 74.408,18.303C74.408,14.907 73.524,12.312 71.786,10.655C70.101,9.028 67.587,8.226 64.304,8.226Z" style="fill:rgb(1,157,244);fill-rule:nonzero;stroke:rgb(1,157,244);stroke-width:0.49px;"/>
    </g>
    <g transform="matrix(1,0.000894481,-0.000894481,1,0,0)">
        <path d="M63.972,24.65C62.608,24.641 61.279,24.215 60.162,23.431C59.922,23.272 59.777,23.002 59.775,22.713C59.788,22.283 60.146,21.938 60.576,21.94C60.763,21.944 60.946,22.001 61.101,22.106C61.982,22.729 63.031,23.075 64.11,23.1C65.817,23.1 66.898,22.272 66.898,20.947C66.898,20.119 66.594,19.207 64.302,18.903L63.75,18.82C60.713,18.434 60.078,16.748 60.078,15.397C60.078,13.188 61.652,11.781 64.08,11.781C65.203,11.761 66.31,12.048 67.283,12.609C67.555,12.749 67.733,13.022 67.753,13.327L67.753,13.329C67.753,13.736 67.417,14.072 67.01,14.072L67.008,14.072C66.843,14.063 66.682,14.015 66.538,13.934C65.779,13.507 64.924,13.279 64.054,13.272C62.563,13.272 61.652,14.045 61.652,15.287C61.652,16.06 61.955,16.994 64.191,17.274L64.744,17.357C66.45,17.578 68.471,18.351 68.471,20.836C68.444,23.215 66.732,24.65 63.972,24.65ZM60.466,22.994C61.498,23.703 62.719,24.088 63.972,24.098C66.429,24.098 67.893,22.911 67.893,20.928C67.893,19.245 66.843,18.278 64.663,18.002L64.111,17.919C62.038,17.644 61.074,16.843 61.074,15.352C61.078,13.913 62.261,12.732 63.7,12.732C63.819,12.732 63.938,12.74 64.056,12.756C65.016,12.766 65.958,13.022 66.789,13.501C66.855,13.545 66.931,13.573 67.01,13.584L67.015,13.584C67.119,13.584 67.204,13.499 67.204,13.395L67.204,13.39C67.204,13.279 67.093,13.196 67.01,13.146C66.119,12.641 65.108,12.384 64.084,12.401C61.958,12.401 60.633,13.561 60.633,15.466C60.633,17.095 61.709,18.062 63.802,18.337L64.355,18.42C66.481,18.687 67.456,19.516 67.456,21.006C67.456,22.663 66.131,23.712 64.088,23.712C62.897,23.692 61.74,23.307 60.775,22.607C60.713,22.556 60.635,22.527 60.555,22.524C60.442,22.519 60.344,22.606 60.334,22.718C60.327,22.828 60.379,22.934 60.472,22.994L60.466,22.994Z" style="fill:rgb(1,157,244);fill-rule:nonzero;stroke:rgb(1,157,244);stroke-width:0.49px;"/>
    </g>
    <g transform="matrix(1,0.000894481,-0.000894481,1,0,0)">
        <path d="M64.221,26.39L64.21,26.39C63.867,26.39 63.585,26.109 63.585,25.766L63.585,11.207C63.585,10.858 63.872,10.571 64.221,10.571C64.569,10.571 64.856,10.858 64.856,11.207L64.856,25.783C64.84,26.121 64.558,26.389 64.221,26.39Z" style="fill:rgb(1,157,244);fill-rule:nonzero;stroke:rgb(1,157,244);stroke-width:0.49px;"/>
    </g>
    <g>
        <g transform="matrix(1,0.000894481,-0.000894481,1,0,0)">
            <path d="M92.905,47.236L65.686,47.236C65.617,47.243 65.547,47.247 65.479,47.247C64.449,47.247 63.602,46.401 63.602,45.37C63.602,45.302 63.606,45.233 63.613,45.163L63.613,29.289C63.613,28.941 63.9,28.654 64.249,28.654C64.597,28.654 64.884,28.941 64.884,29.289L64.884,45.163C64.884,45.798 65.05,45.991 65.685,45.991L95.087,45.991C95.667,45.991 95.832,45.825 95.832,45.246L95.832,16.204L89.094,16.204C85.809,16.176 83.852,13.857 83.852,9.964L83.852,4.222L65.712,4.222C65.102,4.222 64.911,4.416 64.911,5.023L64.911,7.623C64.911,7.966 64.629,8.248 64.286,8.248L64.266,8.248C63.923,8.248 63.641,7.966 63.641,7.623L63.641,5.023C63.635,4.961 63.632,4.898 63.632,4.836C63.632,3.811 64.475,2.967 65.501,2.967C65.571,2.967 65.642,2.972 65.712,2.979L84.498,2.979C84.841,2.979 85.122,3.261 85.122,3.604L85.122,9.992C85.122,11.842 85.646,14.962 89.125,14.962L96.506,14.962C96.848,14.962 97.13,15.243 97.13,15.586L97.13,45.275C97.136,45.335 97.138,45.395 97.138,45.454C97.138,46.466 96.306,47.299 95.294,47.299C95.234,47.299 95.174,47.297 95.115,47.291C94.368,47.236 93.624,47.236 92.905,47.236ZM89.704,38.621L71.096,38.621C70.747,38.621 70.46,38.334 70.46,37.986C70.46,37.637 70.747,37.351 71.096,37.351L89.704,37.351C90.053,37.351 90.339,37.637 90.339,37.986C90.339,38.334 90.053,38.621 89.704,38.621ZM89.704,31.25L73.69,31.25C73.341,31.25 73.055,30.963 73.055,30.615C73.055,30.266 73.341,29.979 73.69,29.979L89.704,29.979C90.053,29.979 90.339,30.266 90.339,30.615C90.339,30.963 90.053,31.25 89.704,31.25ZM89.704,23.907L77.721,23.907C77.372,23.907 77.085,23.62 77.085,23.272C77.085,22.923 77.372,22.636 77.721,22.636L89.704,22.636C90.053,22.636 90.339,22.923 90.339,23.272C90.339,23.62 90.053,23.907 89.704,23.907Z" style="fill:rgb(1,157,244);fill-rule:nonzero;stroke:rgb(1,157,244);stroke-width:0.49px;"/>
        </g>
        <g transform="matrix(1,0.000894481,-0.000894481,1,0,0)">
            <path d="M96.468,16.176L89.093,16.176C85.807,16.148 83.851,13.829 83.851,9.936L83.851,3.56C83.853,3.307 84.005,3.079 84.237,2.979C84.471,2.87 84.753,2.926 84.927,3.117L96.909,15.099C97.088,15.281 97.143,15.553 97.047,15.789C96.941,16.016 96.718,16.165 96.468,16.176ZM85.093,5.081L85.093,9.937C85.093,11.787 85.617,14.907 89.096,14.907L94.945,14.907L85.093,5.081Z" style="fill:rgb(1,157,244);fill-rule:nonzero;stroke:rgb(1,157,244);stroke-width:0.49px;"/>
        </g>
    </g>
    <g transform="matrix(1.21918,0,0,1.21918,52.9566,6.826)">
        <ellipse cx="9.5" cy="9" rx="9.5" ry="9" style="fill:rgb(1,157,244);fill-opacity:0.2;"/>
    </g>
    <g>
        <g transform="matrix(1.64073,0,0,1.64073,155.31,5.31121)">
            <circle cx="12" cy="12" r="12" style="fill:rgb(230,55,128);"/>
        </g>
        <path d="M176.584,12.097C174.819,13.283 173.573,15.101 173.105,17.175C172.975,17.841 172.935,18.523 172.986,19.2C172.727,18.662 172.576,18.079 172.543,17.482C172.514,17.055 172.156,16.72 171.727,16.72C171.53,16.72 171.339,16.791 171.191,16.92C168.145,19.579 166.361,23.407 166.284,27.45C166.284,31.739 168.751,34.575 172.263,36.494C172.384,36.562 172.52,36.597 172.659,36.597C173.108,36.597 173.476,36.227 173.476,35.78C173.476,35.661 173.452,35.545 173.402,35.439C173.214,35.072 173.109,34.668 173.094,34.256C173.151,32.862 173.856,31.571 174.998,30.769C176.141,31.571 176.846,32.862 176.903,34.256C176.886,34.668 176.781,35.072 176.595,35.439C176.545,35.545 176.52,35.661 176.52,35.78C176.52,36.227 176.889,36.597 177.338,36.597C177.477,36.597 177.612,36.562 177.734,36.494C181.249,34.577 183.713,31.744 183.713,27.45C183.584,24.375 182.355,21.447 180.251,19.2C178.627,17.119 177.27,15.451 177.452,12.973L177.452,12.949C177.452,12.482 177.068,12.097 176.599,12.097L176.584,12.097ZM175.967,14.93C176.553,16.891 177.577,18.696 178.96,20.204C180.848,22.158 181.955,24.738 182.074,27.452C182.136,30.121 180.772,32.632 178.501,34.035C178.433,31.927 177.222,30.015 175.345,29.051C175.125,28.948 174.869,28.948 174.648,29.051C172.771,30.015 171.562,31.927 171.493,34.035C169.223,32.631 167.86,30.121 167.92,27.452C167.995,24.392 169.166,21.461 171.22,19.192C171.669,20.497 172.563,21.603 173.746,22.313C173.876,22.395 174.027,22.438 174.179,22.438C174.628,22.438 174.997,22.068 174.997,21.621C174.997,21.564 174.991,21.508 174.98,21.454C174.617,20.171 174.525,18.828 174.708,17.508C174.929,16.566 175.359,15.685 175.964,14.93L175.967,14.93Z" style="fill:white;fill-rule:nonzero;"/>
    </g>
    <g>
        <g transform="matrix(1.64073,0,0,1.64073,205.311,5.31122)">
            <circle cx="12" cy="12" r="12" style="fill:rgb(11,39,57);"/>
        </g>
        <path d="M235.717,31.372C235.717,28.049 233.022,25.353 229.698,25.353L220.302,25.353C216.978,25.353 214.283,28.049 214.283,31.372L214.283,36.05C214.283,36.416 214.428,36.766 214.686,37.025C214.944,37.284 215.294,37.427 215.659,37.427L234.341,37.427C234.706,37.427 235.056,37.284 235.314,37.025C235.572,36.766 235.717,36.416 235.717,36.05L235.717,31.372ZM234.051,35.761L234.051,31.372C234.051,28.969 232.102,27.019 229.698,27.019L220.302,27.019C217.898,27.019 215.949,28.969 215.949,31.372L215.949,35.761L234.051,35.761ZM225,11.614C221.569,11.614 218.782,14.4 218.782,17.832C218.782,21.264 221.569,24.05 225,24.05C228.432,24.05 231.219,21.264 231.219,17.832C231.219,14.4 228.432,11.614 225,11.614ZM225,13.28C227.512,13.28 229.552,15.32 229.552,17.832C229.552,20.344 227.512,22.383 225,22.383C222.488,22.383 220.449,20.344 220.449,17.832C220.449,15.32 222.488,13.28 225,13.28Z" style="fill:white;"/>
    </g>
    <g>
        <g transform="matrix(1.65418,0,0,1.65418,262.723,10.7741)">
            <path d="M9.829,14.847C9.717,16.101 8.664,17.08 7.405,17.1C6.146,17.08 5.093,16.101 4.981,14.847L1.67,14.847C0.798,14.81 0.1,14.082 0.1,13.209C0.1,12.335 0.798,11.607 1.67,11.57C1.743,11.565 1.802,11.506 1.807,11.433L1.807,7.781C1.786,5.284 3.352,3.031 5.7,2.182L5.7,1.909C5.687,0.938 6.468,0.125 7.439,0.1C8.41,0.124 9.193,0.937 9.18,1.909L9.18,2.182C11.511,3.048 13.059,5.295 13.037,7.782L13.037,11.4C13.042,11.473 13.101,11.532 13.174,11.537C14.046,11.574 14.744,12.302 14.744,13.176C14.744,14.049 14.046,14.777 13.174,14.814L9.829,14.814L9.829,14.847ZM8.976,14.847L5.869,14.847C5.988,15.621 6.656,16.202 7.439,16.212C8.215,16.201 8.873,15.617 8.976,14.847ZM6.245,2.967C4.112,3.585 2.641,5.561 2.66,7.781L2.66,11.4C2.676,11.961 2.231,12.437 1.67,12.458C1.279,12.487 0.973,12.816 0.973,13.208C0.973,13.6 1.279,13.929 1.67,13.958L13.17,13.958C13.561,13.929 13.867,13.6 13.867,13.208C13.867,12.816 13.561,12.487 13.17,12.458C12.609,12.437 12.164,11.961 12.18,11.4L12.18,7.781C12.213,5.568 10.754,3.59 8.63,2.968L8.323,2.868L8.323,1.909C8.323,1.897 8.324,1.886 8.324,1.874C8.324,1.406 7.939,1.021 7.471,1.021L7.47,1.021C7.459,1.021 7.449,1.02 7.438,1.02C6.95,1.02 6.549,1.421 6.548,1.909L6.548,2.865L6.245,2.967Z" style="fill:none;stroke:rgb(49,50,53);stroke-width:0.2px;"/>
        </g>
        <path d="M278.982,35.334C278.797,37.408 277.055,39.027 274.972,39.061C272.89,39.027 271.148,37.408 270.963,35.334L265.486,35.334C264.043,35.273 262.889,34.068 262.889,32.624C262.889,31.178 264.043,29.974 265.486,29.913C265.606,29.905 265.704,29.807 265.712,29.686L265.712,23.645C265.678,19.515 268.268,15.788 272.152,14.384L272.152,13.932C272.13,12.326 273.422,10.981 275.029,10.94C276.635,10.979 277.93,12.324 277.909,13.932L277.909,14.384C281.764,15.816 284.325,19.533 284.289,23.647L284.289,29.632C284.297,29.753 284.395,29.85 284.515,29.858C285.958,29.92 287.112,31.124 287.112,32.57C287.112,34.014 285.958,35.218 284.515,35.279L278.982,35.279L278.982,35.334ZM277.571,35.334L272.432,35.334C272.628,36.614 273.733,37.575 275.029,37.592C276.312,37.573 277.401,36.607 277.571,35.334ZM273.054,15.682C269.525,16.704 267.092,19.973 267.123,23.645L267.123,29.632C267.15,30.56 266.414,31.347 265.486,31.382C264.839,31.43 264.333,31.974 264.333,32.623C264.333,33.271 264.839,33.815 265.486,33.863L284.509,33.863C285.155,33.815 285.662,33.271 285.662,32.623C285.662,31.974 285.155,31.43 284.509,31.382C283.581,31.347 282.845,30.56 282.871,29.632L282.871,23.645C282.926,19.985 280.512,16.713 276.999,15.684L276.491,15.518L276.491,13.932C276.491,13.912 276.493,13.894 276.493,13.874C276.493,13.1 275.856,12.463 275.082,12.463L275.08,12.463C275.062,12.463 275.045,12.461 275.027,12.461C274.22,12.461 273.556,13.125 273.555,13.932L273.555,15.513L273.054,15.682Z" style="fill:rgb(49,50,53);fill-rule:nonzero;"/>
    </g>
    <g transform="matrix(1.87724,0,0,1.87724,-1686.63,-274.391)">
        <g id="Grupo_12120">
            <g id="Trazado_9322" transform="matrix(1,0,0,1,22.971,37.0523)">
                <rect x="907.373" y="138.363" width="16.139" height="22.654" style="fill:rgb(206,211,215);fill-opacity:0.5;"/>
            </g>
            <g transform="matrix(1.01409,0,0,1.01409,916.812,169.417)">
                <g id="noun_building_2591126">
                    <g id="Grupo_12115">
                        <path id="Trazado_9318" d="M19.749,27.213L19.749,23.313C19.749,23.021 19.99,22.78 20.282,22.78L22.038,22.78C22.33,22.78 22.571,23.021 22.571,23.313L22.571,27.213L28.71,27.213L28.71,6.777L13.893,6.777L13.893,27.213L19.749,27.213ZM30.192,27.297L31.07,27.297C31.362,27.297 31.603,27.538 31.603,27.83L31.603,28.99L11,28.99L11,27.83C11,27.538 11.241,27.297 11.533,27.297L12.411,27.297L12.411,5.889C12.39,5.424 12.754,5.023 13.219,5L29.384,5C29.849,5.023 30.213,5.424 30.192,5.889L30.192,27.297ZM17.46,9.233L19.216,9.233C19.508,9.233 19.749,9.474 19.749,9.766L19.749,11.522C19.749,11.814 19.508,12.055 19.216,12.055L17.46,12.055C17.168,12.055 16.927,11.814 16.927,11.522L16.927,9.766C16.927,9.474 17.168,9.233 17.46,9.233ZM17.46,13.749L19.216,13.749C19.508,13.749 19.749,13.99 19.749,14.282L19.749,16.038C19.749,16.33 19.508,16.571 19.216,16.571L17.46,16.571C17.168,16.571 16.927,16.33 16.927,16.038L16.927,14.282C16.927,13.99 17.168,13.749 17.46,13.749ZM17.46,18.249L19.216,18.249C19.508,18.249 19.749,18.49 19.749,18.782L19.749,20.538C19.749,20.83 19.508,21.071 19.216,21.071L17.46,21.071C17.168,21.071 16.927,20.83 16.927,20.538L16.927,18.782C16.927,18.49 17.168,18.249 17.46,18.249ZM23.1,18.249L24.861,18.249C25.153,18.249 25.394,18.49 25.394,18.782L25.394,20.538C25.394,20.83 25.153,21.071 24.861,21.071L23.1,21.071C22.808,21.071 22.567,20.83 22.567,20.538L22.567,18.782C22.567,18.49 22.808,18.249 23.1,18.249ZM23.1,13.749L24.861,13.749C25.153,13.749 25.394,13.99 25.394,14.282L25.394,16.038C25.394,16.33 25.153,16.571 24.861,16.571L23.1,16.571C22.808,16.571 22.567,16.33 22.567,16.038L22.567,14.282C22.567,13.99 22.808,13.749 23.1,13.749ZM23.1,9.233L24.861,9.233C25.153,9.233 25.394,9.474 25.394,9.766L25.394,11.522C25.394,11.814 25.153,12.055 24.861,12.055L23.1,12.055C22.808,12.055 22.567,11.814 22.567,11.522L22.567,9.766C22.567,9.474 22.808,9.233 23.1,9.233Z" style="fill:rgb(11,39,57);fill-rule:nonzero;"/>
                    </g>
                </g>
            </g>
        </g>
    </g>
    <g transform="matrix(1.7585,0,0,1.7585,-1584.97,-163.986)">
        <g id="Grupo_12121">
            <path id="Trazado_9321" d="M911.3,136.652L908.251,137.852L906.412,140.58L905.061,146.541L905.637,148.596L906.724,148.937L924.271,148.937L926.01,147.537L925.486,145.423L923.511,138.364L921.111,136.653L918.477,135.78L916.257,135.78L912.126,135.427L911.3,136.652Z" style="fill:rgb(206,211,215);fill-opacity:0.5;fill-rule:nonzero;"/>
            <g id="noun_bussiness_1956386" transform="matrix(1,0,0,1,905.087,123.885)">
                <g id="Grupo_12114">
                    <g id="Trazado_9317" transform="matrix(1,0,0,1,-2.459,-43.171)">
                        <path d="M21.746,60.157C21.331,57.628 19.104,55.764 16.541,55.8C16.302,55.806 16.09,55.961 16.013,56.187L15.528,58.5L13.516,58.5C13.765,58.495 13.968,58.292 13.973,58.043L13.973,56.887C13.968,56.638 13.765,56.435 13.516,56.43L12,56.43C11.751,56.435 11.548,56.638 11.543,56.887L11.543,58.048C11.55,58.295 11.753,58.495 12,58.5L10.7,58.5L9.507,56.183C9.441,55.95 9.222,55.791 8.98,55.8C6.416,55.764 4.189,57.63 3.775,60.161L2.508,65.714C2.476,65.856 2.46,66.001 2.46,66.147C2.46,67.236 3.353,68.134 4.442,68.141L21.078,68.141C22.167,68.134 23.06,67.236 23.06,66.147C23.06,66.001 23.044,65.856 23.012,65.714L21.746,60.157Z" style="fill:none;fill-rule:nonzero;stroke:rgb(11,39,57);stroke-width:1.2px;"/>
                    </g>
                    <g id="Elipse_817" transform="matrix(1,0,0,1,4.235,0)">
                        <circle cx="6.084" cy="6.084" r="6.084" style="fill:none;stroke:rgb(11,39,57);stroke-width:1.2px;"/>
                    </g>
                </g>
            </g>
            <g id="Trazado_9320" transform="matrix(1,0,0,1,-370.817,4435.88)">
                <path d="M1285.36,-4298.62L1285.36,-4295.99L1284.24,-4286.82L1288.38,-4286.82L1287,-4296.2L1287.15,-4298.75L1285.36,-4298.62Z" style="fill:rgb(11,39,57);fill-rule:nonzero;"/>
            </g>
        </g>
    </g>
    <g transform="matrix(2.05002,0,0,2.05002,-881.586,-843.323)">
        <g id="Grupo_1639" transform="matrix(1,0,0,1,-8.652,-322)">
            <g id="Trazado_1910" transform="matrix(1,0,0,1,453.038,671.54)">
                <path d="M42.477,99.7C40.788,99.578 39.12,100.151 37.862,101.285C36.813,102.334 36.3,105.896 36.3,107.924L36.3,109.6C36.3,109.843 36.5,110.043 36.743,110.043L56.6,110.043C56.843,110.043 57.043,109.843 57.043,109.6L57.043,107.922C57.043,105.894 56.507,102.332 55.481,101.283C54.221,100.154 52.556,99.583 50.869,99.7L42.477,99.7ZM56.16,107.924L56.16,109.136L37.186,109.136L37.186,107.924C37.186,106.129 37.629,102.777 38.491,101.915C39.593,100.968 41.028,100.498 42.477,100.61L50.869,100.61C52.318,100.498 53.753,100.968 54.855,101.915C55.717,102.8 56.16,106.152 56.16,107.924Z" style="fill:rgb(0,151,237);fill-rule:nonzero;stroke:rgb(0,151,237);stroke-width:0.2px;"/>
            </g>
            <g id="Elipse_66" transform="matrix(1,0,0,1,494.714,759.378)">
                <circle cx="5.189" cy="5.189" r="5.189" style="fill:none;"/>
                <circle cx="5.189" cy="5.189" r="4.589" style="fill:none;stroke:rgb(0,151,237);stroke-width:1.2px;"/>
            </g>
            <path id="Trazado_7622" d="M489.337,780.871L509.455,780.871L509.455,773.99L505.423,771.79L493.25,771.79L490.564,773.99L489.337,780.871Z" style="fill:rgb(0,151,237);fill-opacity:0.3;fill-rule:nonzero;"/>
        </g>
        <g id="Elipse_83" transform="matrix(1,0,0,1,487,438)">
            <circle cx="4.5" cy="4.5" r="4.5" style="fill:rgb(0,151,237);fill-opacity:0.2;"/>
        </g>
    </g>
</svg>
