<svg xmlns="http://www.w3.org/2000/svg" width="13.209" height="10.162" viewBox="0 0 13.209 10.162">
  <path id="check" d="M1.787,4.374a.939.939,0,0,0-1.41,0C.1,4.8-.045,5.5.378,5.783L4.466,9.871a1.077,1.077,0,0,0,.7.282h0a1.077,1.077,0,0,0,.7-.282l7.189-8.317a.942.942,0,0,0-.141-1.41,1.3,1.3,0,0,0-1.41.141L5.17,7.757Z" transform="translate(-0.111 0.009)" fill="#5cb615"/>
</svg>
